G75*
%MOIN*%
%OFA0B0*%
%FSLAX24Y24*%
%IPPOS*%
%LPD*%
%AMOC8*
5,1,8,0,0,1.08239X$1,22.5*
%
%ADD10C,0.0640*%
%ADD11OC8,0.0640*%
%ADD12C,0.0760*%
%ADD13C,0.2300*%
%ADD14C,0.0760*%
%ADD15C,0.1880*%
%ADD16C,0.0320*%
%ADD17C,0.0160*%
D10*
X002691Y001511D02*
X003331Y001511D01*
X003331Y002511D02*
X002691Y002511D01*
X002691Y003511D02*
X003331Y003511D01*
X003331Y004511D02*
X002691Y004511D01*
X002691Y005511D02*
X003331Y005511D01*
X003331Y006511D02*
X002691Y006511D01*
X002691Y007511D02*
X003331Y007511D01*
X005691Y007511D02*
X006331Y007511D01*
X006331Y006511D02*
X005691Y006511D01*
X005691Y005511D02*
X006331Y005511D01*
X006331Y004511D02*
X005691Y004511D01*
X005691Y003511D02*
X006331Y003511D01*
X006331Y002511D02*
X005691Y002511D01*
X005691Y001511D02*
X006331Y001511D01*
D11*
X009038Y001526D03*
X010219Y001526D03*
X011400Y001526D03*
X012582Y001526D03*
X013763Y001526D03*
X015822Y002345D03*
X016822Y002345D03*
X016822Y004314D03*
X015822Y004314D03*
X013763Y005526D03*
X012582Y005526D03*
X011400Y005526D03*
X010219Y005526D03*
X009038Y005526D03*
X009400Y006676D03*
X009400Y007857D03*
X006511Y010291D03*
X005011Y008913D03*
X004011Y008913D03*
X002511Y010291D03*
X009719Y017897D03*
X010719Y017897D03*
X012082Y017897D03*
X013082Y017897D03*
X015822Y012385D03*
X016822Y012385D03*
X016822Y010416D03*
X015822Y010416D03*
X015822Y008448D03*
X016822Y008448D03*
X016822Y006479D03*
X015822Y006479D03*
X013400Y006676D03*
X013400Y007857D03*
D12*
X012400Y015867D02*
X012400Y016627D01*
X011400Y016627D02*
X011400Y015867D01*
X010400Y015867D02*
X010400Y016627D01*
D13*
X011400Y010347D03*
D14*
X006381Y015034D03*
X005830Y013715D03*
X003192Y013715D03*
X002641Y015034D03*
X003192Y016353D03*
X005830Y016353D03*
D15*
X015259Y016125D03*
X016440Y017975D03*
X017621Y016125D03*
D16*
X015259Y016125D02*
X015137Y016247D01*
X012400Y016247D01*
X012400Y017215D01*
X013082Y017897D01*
X010400Y017215D02*
X010400Y016247D01*
X008863Y016247D01*
X007493Y017618D01*
X002930Y017618D01*
X001930Y016618D01*
X001930Y015745D01*
X002641Y015034D01*
X002641Y014267D01*
X003192Y013715D01*
X004011Y012897D01*
X004011Y010430D01*
X004011Y008913D01*
X003011Y007913D01*
X003011Y007511D01*
X010400Y017215D02*
X009719Y017897D01*
D17*
X000909Y001370D02*
X001114Y001114D01*
X001370Y000909D01*
X001665Y000767D01*
X001985Y000694D01*
X002149Y000685D01*
X004234Y000685D01*
X003822Y001097D01*
X003693Y000968D01*
X003458Y000871D01*
X002563Y000871D01*
X002328Y000968D01*
X002148Y001148D01*
X002051Y001383D01*
X002051Y001638D01*
X002148Y001873D01*
X002286Y002011D01*
X002148Y002148D01*
X002051Y002383D01*
X002051Y002638D01*
X002148Y002873D01*
X002286Y003011D01*
X002148Y003148D01*
X002051Y003383D01*
X002051Y003638D01*
X002148Y003873D01*
X002286Y004011D01*
X002186Y004111D01*
X002145Y004111D01*
X001998Y004172D01*
X001885Y004284D01*
X001328Y004841D01*
X001216Y004953D01*
X001155Y005100D01*
X001155Y009415D01*
X001216Y009562D01*
X001871Y010217D01*
X001871Y010556D01*
X002246Y010931D01*
X002776Y010931D01*
X003151Y010556D01*
X003151Y010026D01*
X002776Y009651D01*
X002436Y009651D01*
X001955Y009170D01*
X001955Y005346D01*
X002145Y005156D01*
X002051Y005383D01*
X002051Y005638D01*
X002148Y005873D01*
X002286Y006011D01*
X002148Y006148D01*
X002051Y006383D01*
X002051Y006638D01*
X002148Y006873D01*
X002286Y007011D01*
X002148Y007148D01*
X002051Y007383D01*
X002051Y007638D01*
X002148Y007873D01*
X002328Y008053D01*
X002563Y008151D01*
X002590Y008151D01*
X002604Y008185D01*
X002739Y008320D01*
X003371Y008952D01*
X003371Y009178D01*
X003531Y009338D01*
X003531Y012698D01*
X003213Y013015D01*
X003053Y013015D01*
X002795Y013122D01*
X002598Y013319D01*
X002492Y013576D01*
X002492Y013737D01*
X002369Y013860D01*
X002234Y013995D01*
X002161Y014171D01*
X002161Y014524D01*
X002047Y014638D01*
X001941Y014895D01*
X001941Y015056D01*
X001523Y015473D01*
X001450Y015649D01*
X001450Y016713D01*
X001523Y016889D01*
X001658Y017024D01*
X001658Y017024D01*
X002658Y018024D01*
X002835Y018097D01*
X007588Y018097D01*
X007764Y018024D01*
X007899Y017889D01*
X007899Y017889D01*
X009062Y016727D01*
X009700Y016727D01*
X009700Y016766D01*
X009807Y017023D01*
X009860Y017077D01*
X009681Y017257D01*
X009454Y017257D01*
X009079Y017631D01*
X009079Y018162D01*
X009454Y018537D01*
X009984Y018537D01*
X010248Y018273D01*
X010471Y018497D01*
X010719Y018497D01*
X010719Y017897D01*
X010719Y017897D01*
X010719Y018497D01*
X010968Y018497D01*
X011319Y018145D01*
X011319Y017897D01*
X010719Y017897D01*
X011400Y017897D01*
X011400Y016247D01*
X011400Y014180D01*
X013400Y014180D01*
X013400Y007857D01*
X012800Y007857D01*
X012800Y007609D01*
X013114Y007295D01*
X012760Y006941D01*
X012760Y006411D01*
X013135Y006036D01*
X013367Y006036D01*
X013172Y005841D01*
X012847Y006166D01*
X012316Y006166D01*
X011991Y005841D01*
X011666Y006166D01*
X011135Y006166D01*
X010810Y005841D01*
X010484Y006166D01*
X009954Y006166D01*
X009629Y005841D01*
X009434Y006036D01*
X009666Y006036D01*
X010040Y006411D01*
X010040Y006941D01*
X009715Y007267D01*
X010040Y007592D01*
X010040Y008122D01*
X009666Y008497D01*
X009135Y008497D01*
X008895Y008257D01*
X008340Y008257D01*
X008193Y008196D01*
X008081Y008084D01*
X007955Y007958D01*
X007955Y012070D01*
X007894Y012217D01*
X007782Y012329D01*
X006530Y013581D01*
X006530Y013855D01*
X006423Y014112D01*
X006226Y014309D01*
X005969Y014415D01*
X005690Y014415D01*
X005433Y014309D01*
X005236Y014112D01*
X005130Y013855D01*
X005130Y013576D01*
X005236Y013319D01*
X005433Y013122D01*
X005690Y013015D01*
X005964Y013015D01*
X007155Y011824D01*
X007155Y007158D01*
X006908Y006911D01*
X006836Y006911D01*
X006705Y007041D01*
X006722Y007053D01*
X006788Y007120D01*
X006844Y007196D01*
X006887Y007280D01*
X006916Y007370D01*
X006931Y007463D01*
X006931Y007511D01*
X006931Y007558D01*
X006916Y007651D01*
X006887Y007741D01*
X006844Y007825D01*
X006788Y007902D01*
X006722Y007968D01*
X006645Y008024D01*
X006561Y008067D01*
X006471Y008096D01*
X006378Y008111D01*
X006011Y008111D01*
X006011Y007511D01*
X006011Y007511D01*
X006931Y007511D01*
X006011Y007511D01*
X006011Y007511D01*
X006011Y008111D01*
X005643Y008111D01*
X005550Y008096D01*
X005460Y008067D01*
X005376Y008024D01*
X005300Y007968D01*
X005233Y007902D01*
X005178Y007825D01*
X005135Y007741D01*
X005105Y007651D01*
X005091Y007558D01*
X005091Y007511D01*
X006011Y007511D01*
X005011Y007511D01*
X005011Y008913D01*
X005011Y008913D01*
X005611Y008913D01*
X005611Y008665D01*
X005259Y008313D01*
X005011Y008313D01*
X005011Y008913D01*
X005011Y008913D01*
X005611Y008913D01*
X005611Y009162D01*
X005259Y009513D01*
X005011Y009513D01*
X005011Y008913D01*
X005011Y008313D01*
X004762Y008313D01*
X004539Y008536D01*
X004276Y008273D01*
X004050Y008273D01*
X003761Y007985D01*
X003873Y007873D01*
X003971Y007638D01*
X003971Y007383D01*
X003873Y007148D01*
X003736Y007011D01*
X003873Y006873D01*
X003971Y006638D01*
X003971Y006383D01*
X003873Y006148D01*
X003736Y006011D01*
X003873Y005873D01*
X003971Y005638D01*
X003971Y005383D01*
X003873Y005148D01*
X003736Y005011D01*
X003873Y004873D01*
X003971Y004638D01*
X003971Y004383D01*
X003873Y004148D01*
X003736Y004011D01*
X003873Y003873D01*
X003971Y003638D01*
X003971Y003383D01*
X003873Y003148D01*
X003736Y003011D01*
X003873Y002873D01*
X003971Y002638D01*
X003971Y002383D01*
X003873Y002148D01*
X003736Y002011D01*
X003836Y001911D01*
X004054Y001911D01*
X004201Y001850D01*
X004846Y001205D01*
X005125Y001205D01*
X005051Y001383D01*
X005051Y001638D01*
X005148Y001873D01*
X005286Y002011D01*
X005148Y002148D01*
X005051Y002383D01*
X005051Y002638D01*
X005148Y002873D01*
X005286Y003011D01*
X005148Y003148D01*
X005051Y003383D01*
X005051Y003638D01*
X005148Y003873D01*
X005286Y004011D01*
X005148Y004148D01*
X005051Y004383D01*
X005051Y004638D01*
X005148Y004873D01*
X005286Y005011D01*
X005148Y005148D01*
X005051Y005383D01*
X005051Y005638D01*
X005148Y005873D01*
X005286Y006011D01*
X005148Y006148D01*
X005051Y006383D01*
X005051Y006638D01*
X005148Y006873D01*
X005316Y007041D01*
X005300Y007053D01*
X005233Y007120D01*
X005178Y007196D01*
X005135Y007280D01*
X005105Y007370D01*
X005091Y007463D01*
X005091Y007511D01*
X006011Y007511D01*
X006011Y007511D01*
X006011Y007630D02*
X006011Y007630D01*
X006011Y007788D02*
X006011Y007788D01*
X006011Y007947D02*
X006011Y007947D01*
X006011Y008105D02*
X006011Y008105D01*
X006414Y008105D02*
X007155Y008105D01*
X007155Y007947D02*
X006743Y007947D01*
X006863Y007788D02*
X007155Y007788D01*
X007155Y007630D02*
X006919Y007630D01*
X006931Y007471D02*
X007155Y007471D01*
X007155Y007313D02*
X006897Y007313D01*
X006813Y007154D02*
X007151Y007154D01*
X006992Y006996D02*
X006751Y006996D01*
X007073Y006511D02*
X007555Y006993D01*
X007555Y011990D01*
X005830Y013715D01*
X006482Y013970D02*
X019360Y013970D01*
X019360Y014128D02*
X006407Y014128D01*
X006248Y014287D02*
X019360Y014287D01*
X019360Y014445D02*
X006680Y014445D01*
X006673Y014441D02*
X006748Y014484D01*
X006817Y014537D01*
X006878Y014598D01*
X006931Y014667D01*
X006974Y014742D01*
X007007Y014822D01*
X007029Y014905D01*
X007041Y014991D01*
X007041Y015014D01*
X006401Y015014D01*
X006401Y014374D01*
X006424Y014374D01*
X006510Y014386D01*
X006593Y014408D01*
X006673Y014441D01*
X006882Y014604D02*
X019360Y014604D01*
X019360Y014762D02*
X006982Y014762D01*
X007031Y014921D02*
X014885Y014921D01*
X014772Y014951D02*
X015093Y014865D01*
X015425Y014865D01*
X015745Y014951D01*
X016032Y015117D01*
X016267Y015351D01*
X016433Y015639D01*
X016461Y015745D01*
X016492Y015657D01*
X016551Y015534D01*
X016624Y015418D01*
X016710Y015311D01*
X016807Y015214D01*
X016914Y015128D01*
X017030Y015055D01*
X017153Y014996D01*
X017283Y014951D01*
X017416Y014920D01*
X017541Y014906D01*
X017541Y016045D01*
X017701Y016045D01*
X017701Y016205D01*
X017541Y016205D01*
X017541Y017344D01*
X017479Y017337D01*
X017509Y017384D01*
X017569Y017508D01*
X017614Y017637D01*
X017644Y017771D01*
X017659Y017895D01*
X016520Y017895D01*
X016520Y018055D01*
X017659Y018055D01*
X017644Y018180D01*
X017614Y018314D01*
X017569Y018443D01*
X017509Y018566D01*
X019188Y018566D01*
X019136Y018675D02*
X019278Y018380D01*
X019351Y018060D01*
X019360Y017897D01*
X019360Y002149D01*
X019351Y001985D01*
X019278Y001665D01*
X019136Y001370D01*
X018931Y001114D01*
X018675Y000909D01*
X018380Y000767D01*
X018060Y000694D01*
X017897Y000685D01*
X008762Y000685D01*
X008964Y000886D01*
X009303Y000886D01*
X009629Y001212D01*
X009954Y000886D01*
X010484Y000886D01*
X010810Y001212D01*
X011135Y000886D01*
X011666Y000886D01*
X011991Y001212D01*
X012316Y000886D01*
X012847Y000886D01*
X013172Y001212D01*
X013498Y000886D01*
X014028Y000886D01*
X014403Y001261D01*
X014403Y001792D01*
X014249Y001945D01*
X015317Y001945D01*
X015557Y001705D01*
X016087Y001705D01*
X016350Y001969D01*
X016573Y001745D01*
X016822Y001745D01*
X017070Y001745D01*
X017422Y002097D01*
X017422Y002345D01*
X016822Y002345D01*
X016822Y002345D01*
X016822Y001745D01*
X016822Y002345D01*
X016822Y002345D01*
X017422Y002345D01*
X017422Y002594D01*
X017070Y002945D01*
X016822Y002945D01*
X016822Y002345D01*
X016822Y004314D01*
X017422Y004314D01*
X017422Y004562D01*
X017070Y004914D01*
X016822Y004914D01*
X016822Y004314D01*
X016822Y004314D01*
X016822Y004314D01*
X017422Y004314D01*
X017422Y004065D01*
X017070Y003714D01*
X016822Y003714D01*
X016822Y004314D01*
X016822Y006479D01*
X016822Y006479D01*
X017422Y006479D01*
X017422Y006231D01*
X017070Y005879D01*
X016822Y005879D01*
X016822Y006479D01*
X016822Y006479D01*
X017422Y006479D01*
X017422Y006728D01*
X017070Y007079D01*
X016822Y007079D01*
X016822Y006479D01*
X016822Y005879D01*
X016573Y005879D01*
X016350Y006102D01*
X016222Y005974D01*
X016222Y005242D01*
X016161Y005095D01*
X016048Y004983D01*
X016020Y004954D01*
X016087Y004954D01*
X016350Y004691D01*
X016573Y004914D01*
X016822Y004914D01*
X016822Y004314D01*
X016822Y004314D01*
X016822Y003714D01*
X016573Y003714D01*
X016350Y003937D01*
X016087Y003674D01*
X015747Y003674D01*
X015664Y003591D01*
X015517Y003530D01*
X013271Y003530D01*
X014055Y002745D01*
X015317Y002745D01*
X015557Y002985D01*
X016087Y002985D01*
X016350Y002722D01*
X016573Y002945D01*
X016822Y002945D01*
X016822Y002345D01*
X016822Y002345D01*
X016822Y002399D02*
X016822Y002399D01*
X016822Y002241D02*
X016822Y002241D01*
X016822Y002082D02*
X016822Y002082D01*
X016822Y001924D02*
X016822Y001924D01*
X016822Y001765D02*
X016822Y001765D01*
X017090Y001765D02*
X019301Y001765D01*
X019337Y001924D02*
X017248Y001924D01*
X017407Y002082D02*
X019356Y002082D01*
X019360Y002241D02*
X017422Y002241D01*
X017422Y002399D02*
X019360Y002399D01*
X019360Y002558D02*
X017422Y002558D01*
X017300Y002716D02*
X019360Y002716D01*
X019360Y002875D02*
X017141Y002875D01*
X016822Y002875D02*
X016822Y002875D01*
X016822Y002716D02*
X016822Y002716D01*
X016822Y002558D02*
X016822Y002558D01*
X016502Y002875D02*
X016198Y002875D01*
X015822Y002345D02*
X013890Y002345D01*
X012743Y003493D01*
X011072Y003493D01*
X009038Y005526D01*
X009584Y005886D02*
X009674Y005886D01*
X009674Y006045D02*
X009832Y006045D01*
X009833Y006203D02*
X012968Y006203D01*
X012969Y006045D02*
X013127Y006045D01*
X013127Y005886D02*
X013217Y005886D01*
X012810Y006362D02*
X009991Y006362D01*
X010040Y006520D02*
X012760Y006520D01*
X012760Y006679D02*
X010040Y006679D01*
X010040Y006837D02*
X012760Y006837D01*
X012815Y006996D02*
X009986Y006996D01*
X009828Y007154D02*
X012973Y007154D01*
X013097Y007313D02*
X009761Y007313D01*
X009919Y007471D02*
X012938Y007471D01*
X012800Y007630D02*
X010040Y007630D01*
X010040Y007788D02*
X012800Y007788D01*
X012800Y007857D02*
X013400Y007857D01*
X013400Y007857D01*
X013400Y008457D01*
X013152Y008457D01*
X012800Y008106D01*
X012800Y007857D01*
X012800Y007947D02*
X010040Y007947D01*
X010040Y008105D02*
X012800Y008105D01*
X012958Y008264D02*
X009899Y008264D01*
X009741Y008422D02*
X013117Y008422D01*
X013400Y008422D02*
X013400Y008422D01*
X013400Y008457D02*
X013400Y007857D01*
X013400Y007857D01*
X013400Y007947D02*
X013400Y007947D01*
X013400Y008105D02*
X013400Y008105D01*
X013400Y008264D02*
X013400Y008264D01*
X013400Y008457D02*
X013649Y008457D01*
X013780Y008326D01*
X013780Y010823D01*
X013841Y010970D01*
X015182Y012310D01*
X015182Y012650D01*
X015557Y013025D01*
X016087Y013025D01*
X016350Y012762D01*
X016573Y012985D01*
X016822Y012985D01*
X016822Y012385D01*
X016822Y012385D01*
X017422Y012385D01*
X017422Y012633D01*
X017070Y012985D01*
X016822Y012985D01*
X016822Y012385D01*
X016822Y012385D01*
X017422Y012385D01*
X017422Y012136D01*
X017070Y011785D01*
X016822Y011785D01*
X016822Y012385D01*
X016822Y014180D01*
X017621Y014180D01*
X017621Y016125D01*
X017701Y016189D02*
X019360Y016189D01*
X019360Y016347D02*
X018822Y016347D01*
X018826Y016330D02*
X018795Y016463D01*
X018750Y016592D01*
X018690Y016716D01*
X018617Y016832D01*
X018532Y016939D01*
X018435Y017036D01*
X018328Y017121D01*
X018212Y017194D01*
X018089Y017254D01*
X017959Y017299D01*
X017826Y017330D01*
X017701Y017344D01*
X017701Y016205D01*
X018840Y016205D01*
X018826Y016330D01*
X018780Y016506D02*
X019360Y016506D01*
X019360Y016664D02*
X018715Y016664D01*
X018623Y016823D02*
X019360Y016823D01*
X019360Y016981D02*
X018490Y016981D01*
X018299Y017140D02*
X019360Y017140D01*
X019360Y017298D02*
X017962Y017298D01*
X017701Y017298D02*
X017541Y017298D01*
X017541Y017140D02*
X017701Y017140D01*
X017701Y016981D02*
X017541Y016981D01*
X017541Y016823D02*
X017701Y016823D01*
X017701Y016664D02*
X017541Y016664D01*
X017541Y016506D02*
X017701Y016506D01*
X017701Y016347D02*
X017541Y016347D01*
X017541Y016030D02*
X017701Y016030D01*
X017701Y016045D02*
X017701Y014906D01*
X017826Y014920D01*
X017959Y014951D01*
X018089Y014996D01*
X018212Y015055D01*
X018328Y015128D01*
X018435Y015214D01*
X018532Y015311D01*
X018617Y015418D01*
X018690Y015534D01*
X018750Y015657D01*
X018795Y015787D01*
X018826Y015920D01*
X018840Y016045D01*
X017701Y016045D01*
X017701Y015872D02*
X017541Y015872D01*
X017541Y015713D02*
X017701Y015713D01*
X017701Y015555D02*
X017541Y015555D01*
X017541Y015396D02*
X017701Y015396D01*
X017701Y015238D02*
X017541Y015238D01*
X017541Y015079D02*
X017701Y015079D01*
X017701Y014921D02*
X017541Y014921D01*
X017415Y014921D02*
X015632Y014921D01*
X015967Y015079D02*
X016992Y015079D01*
X016783Y015238D02*
X016153Y015238D01*
X016293Y015396D02*
X016642Y015396D01*
X016542Y015555D02*
X016384Y015555D01*
X016453Y015713D02*
X016473Y015713D01*
X017827Y014921D02*
X019360Y014921D01*
X019360Y015079D02*
X018250Y015079D01*
X018459Y015238D02*
X019360Y015238D01*
X019360Y015396D02*
X018600Y015396D01*
X018700Y015555D02*
X019360Y015555D01*
X019360Y015713D02*
X018769Y015713D01*
X018814Y015872D02*
X019360Y015872D01*
X019360Y016030D02*
X018838Y016030D01*
X019360Y017457D02*
X017544Y017457D01*
X017606Y017615D02*
X019360Y017615D01*
X019360Y017774D02*
X017645Y017774D01*
X017655Y018091D02*
X019344Y018091D01*
X019358Y017932D02*
X016520Y017932D01*
X016520Y018055D02*
X016360Y018055D01*
X016360Y017895D01*
X015221Y017895D01*
X015235Y017771D01*
X015266Y017637D01*
X015311Y017508D01*
X015370Y017385D01*
X015093Y017385D01*
X014772Y017299D01*
X014485Y017133D01*
X014250Y016899D01*
X014151Y016727D01*
X013100Y016727D01*
X013100Y016766D01*
X012994Y017023D01*
X012941Y017077D01*
X013120Y017257D01*
X013347Y017257D01*
X013722Y017631D01*
X013722Y018162D01*
X013347Y018537D01*
X012816Y018537D01*
X012553Y018273D01*
X012330Y018497D01*
X012082Y018497D01*
X012082Y017897D01*
X012082Y017897D01*
X012082Y018497D01*
X011833Y018497D01*
X011482Y018145D01*
X011482Y017897D01*
X012082Y017897D01*
X011400Y017897D01*
X011319Y017897D02*
X010719Y017897D01*
X010719Y017897D01*
X010719Y017932D02*
X010719Y017932D01*
X010719Y018091D02*
X010719Y018091D01*
X010719Y018249D02*
X010719Y018249D01*
X010719Y018408D02*
X010719Y018408D01*
X010382Y018408D02*
X010113Y018408D01*
X009325Y018408D02*
X000780Y018408D01*
X000767Y018380D02*
X000909Y018675D01*
X001114Y018931D01*
X001370Y019136D01*
X001665Y019278D01*
X001985Y019351D01*
X002149Y019360D01*
X017897Y019360D01*
X018060Y019351D01*
X018380Y019278D01*
X018675Y019136D01*
X018931Y018931D01*
X019136Y018675D01*
X019096Y018725D02*
X017403Y018725D01*
X017436Y018682D02*
X017351Y018789D01*
X017254Y018886D01*
X017147Y018972D01*
X017031Y019045D01*
X016907Y019104D01*
X016778Y019149D01*
X016645Y019180D01*
X016520Y019194D01*
X016520Y018055D01*
X016520Y018091D02*
X016360Y018091D01*
X016360Y018055D02*
X016360Y019194D01*
X016235Y019180D01*
X016102Y019149D01*
X015972Y019104D01*
X015849Y019045D01*
X015733Y018972D01*
X015626Y018886D01*
X015529Y018789D01*
X015443Y018682D01*
X015370Y018566D01*
X000857Y018566D01*
X000949Y018725D02*
X015477Y018725D01*
X015370Y018566D02*
X015311Y018443D01*
X015266Y018314D01*
X015235Y018180D01*
X015221Y018055D01*
X016360Y018055D01*
X016360Y017932D02*
X013722Y017932D01*
X013722Y017774D02*
X015235Y017774D01*
X015273Y017615D02*
X013705Y017615D01*
X013547Y017457D02*
X015336Y017457D01*
X014771Y017298D02*
X013388Y017298D01*
X013003Y017140D02*
X014496Y017140D01*
X014333Y016981D02*
X013011Y016981D01*
X013077Y016823D02*
X014207Y016823D01*
X014050Y015767D02*
X014085Y015639D01*
X014250Y015351D01*
X014485Y015117D01*
X014772Y014951D01*
X014550Y015079D02*
X007041Y015079D01*
X007041Y015078D02*
X007029Y015163D01*
X007007Y015247D01*
X006974Y015327D01*
X006931Y015402D01*
X006878Y015470D01*
X006817Y015532D01*
X006748Y015584D01*
X006673Y015628D01*
X006593Y015661D01*
X006510Y015683D01*
X006424Y015694D01*
X006401Y015694D01*
X006401Y015054D01*
X007041Y015054D01*
X007041Y015078D01*
X006951Y015034D02*
X007805Y014180D01*
X011400Y014180D01*
X011380Y015207D02*
X011380Y016227D01*
X011420Y016227D01*
X011420Y015207D01*
X011444Y015207D01*
X011530Y015218D01*
X011613Y015241D01*
X011693Y015274D01*
X011768Y015317D01*
X011837Y015370D01*
X011872Y015405D01*
X012004Y015273D01*
X012261Y015167D01*
X012540Y015167D01*
X012797Y015273D01*
X012994Y015470D01*
X013100Y015728D01*
X013100Y015767D01*
X014050Y015767D01*
X014065Y015713D02*
X013094Y015713D01*
X013029Y015555D02*
X014133Y015555D01*
X014225Y015396D02*
X012920Y015396D01*
X012710Y015238D02*
X014364Y015238D01*
X013400Y014180D02*
X016822Y014180D01*
X016093Y013019D02*
X019360Y013019D01*
X019360Y013177D02*
X006934Y013177D01*
X007092Y013019D02*
X015550Y013019D01*
X015392Y012860D02*
X007251Y012860D01*
X007409Y012702D02*
X015233Y012702D01*
X015182Y012543D02*
X007568Y012543D01*
X007726Y012385D02*
X015182Y012385D01*
X015097Y012226D02*
X007885Y012226D01*
X007955Y012068D02*
X014939Y012068D01*
X014780Y011909D02*
X007955Y011909D01*
X007955Y011751D02*
X011127Y011751D01*
X011190Y011763D02*
X011053Y011736D01*
X010918Y011695D01*
X010788Y011641D01*
X010664Y011575D01*
X010548Y011497D01*
X010439Y011408D01*
X010340Y011308D01*
X010251Y011200D01*
X010172Y011083D01*
X010106Y010959D01*
X010052Y010829D01*
X010012Y010695D01*
X009984Y010557D01*
X009971Y010427D01*
X011320Y010427D01*
X011320Y010267D01*
X009971Y010267D01*
X009984Y010137D01*
X010012Y009999D01*
X010052Y009865D01*
X010106Y009735D01*
X010172Y009611D01*
X010251Y009494D01*
X010340Y009385D01*
X010439Y009286D01*
X010548Y009197D01*
X010664Y009119D01*
X010788Y009053D01*
X010918Y008999D01*
X011053Y008958D01*
X011190Y008931D01*
X011320Y008918D01*
X011320Y010267D01*
X011480Y010267D01*
X011480Y008918D01*
X011611Y008931D01*
X011748Y008958D01*
X011883Y008999D01*
X012013Y009053D01*
X012137Y009119D01*
X012253Y009197D01*
X012362Y009286D01*
X012461Y009385D01*
X012550Y009494D01*
X012629Y009611D01*
X012695Y009735D01*
X012749Y009865D01*
X012789Y009999D01*
X012817Y010137D01*
X012830Y010267D01*
X011480Y010267D01*
X011480Y010427D01*
X011320Y010427D01*
X011320Y011776D01*
X011190Y011763D01*
X011320Y011751D02*
X011480Y011751D01*
X011480Y011776D02*
X011611Y011763D01*
X011748Y011736D01*
X011883Y011695D01*
X012013Y011641D01*
X012137Y011575D01*
X012253Y011497D01*
X012362Y011408D01*
X012461Y011308D01*
X012550Y011200D01*
X012629Y011083D01*
X012695Y010959D01*
X012749Y010829D01*
X012789Y010695D01*
X012817Y010557D01*
X012830Y010427D01*
X011480Y010427D01*
X011480Y011776D01*
X011480Y011592D02*
X011320Y011592D01*
X011320Y011434D02*
X011480Y011434D01*
X011480Y011275D02*
X011320Y011275D01*
X011320Y011117D02*
X011480Y011117D01*
X011480Y010958D02*
X011320Y010958D01*
X011320Y010800D02*
X011480Y010800D01*
X011480Y010641D02*
X011320Y010641D01*
X011320Y010483D02*
X011480Y010483D01*
X011480Y010324D02*
X013780Y010324D01*
X013780Y010166D02*
X012820Y010166D01*
X012791Y010007D02*
X013780Y010007D01*
X013780Y009849D02*
X012742Y009849D01*
X012671Y009690D02*
X013780Y009690D01*
X013780Y009532D02*
X012575Y009532D01*
X012449Y009373D02*
X013780Y009373D01*
X013780Y009215D02*
X012275Y009215D01*
X012019Y009056D02*
X013780Y009056D01*
X013780Y008898D02*
X007955Y008898D01*
X007955Y009056D02*
X010782Y009056D01*
X010526Y009215D02*
X007955Y009215D01*
X007955Y009373D02*
X010352Y009373D01*
X010225Y009532D02*
X007955Y009532D01*
X007955Y009690D02*
X010130Y009690D01*
X010055Y009690D02*
X013180Y009690D01*
X013180Y009532D02*
X010055Y009532D01*
X010055Y009373D02*
X013180Y009373D01*
X013180Y009215D02*
X010055Y009215D01*
X010055Y009056D02*
X013180Y009056D01*
X013180Y008898D02*
X010055Y008898D01*
X010055Y008739D02*
X013180Y008739D01*
X013180Y008680D02*
X010055Y008680D01*
X010055Y012180D01*
X013180Y012180D01*
X013180Y008680D01*
X013684Y008422D02*
X013780Y008422D01*
X013780Y008581D02*
X007955Y008581D01*
X007955Y008739D02*
X013780Y008739D01*
X014680Y009274D02*
X015822Y010416D01*
X015300Y010800D02*
X014802Y010800D01*
X014961Y010958D02*
X015458Y010958D01*
X015557Y011056D02*
X015182Y010681D01*
X015182Y010342D01*
X014580Y009740D01*
X014580Y010577D01*
X015747Y011745D01*
X016087Y011745D01*
X016350Y012008D01*
X016573Y011785D01*
X016822Y011785D01*
X016822Y012385D01*
X016822Y010416D01*
X016822Y010416D01*
X017422Y010416D01*
X017422Y010168D01*
X017070Y009816D01*
X016822Y009816D01*
X016822Y010416D01*
X016822Y010416D01*
X017422Y010416D01*
X017422Y010665D01*
X017070Y011016D01*
X016822Y011016D01*
X016822Y010416D01*
X016822Y009816D01*
X016573Y009816D01*
X016350Y010039D01*
X016087Y009776D01*
X015747Y009776D01*
X015080Y009109D01*
X015080Y008272D01*
X015182Y008373D01*
X015182Y008713D01*
X015557Y009088D01*
X016087Y009088D01*
X016350Y008825D01*
X016573Y009048D01*
X016822Y009048D01*
X016822Y008448D01*
X016822Y008448D01*
X017422Y008448D01*
X017422Y008696D01*
X017070Y009048D01*
X016822Y009048D01*
X016822Y008448D01*
X016822Y008448D01*
X017422Y008448D01*
X017422Y008199D01*
X017070Y007848D01*
X016822Y007848D01*
X016822Y008448D01*
X016822Y010416D01*
X016822Y010416D01*
X016822Y011016D01*
X016573Y011016D01*
X016350Y010793D01*
X016087Y011056D01*
X015557Y011056D01*
X015278Y011275D02*
X019360Y011275D01*
X019360Y011117D02*
X015119Y011117D01*
X015436Y011434D02*
X019360Y011434D01*
X019360Y011592D02*
X015595Y011592D01*
X016093Y011751D02*
X019360Y011751D01*
X019360Y011909D02*
X017195Y011909D01*
X017353Y012068D02*
X019360Y012068D01*
X019360Y012226D02*
X017422Y012226D01*
X017422Y012385D02*
X019360Y012385D01*
X019360Y012543D02*
X017422Y012543D01*
X017353Y012702D02*
X019360Y012702D01*
X019360Y012860D02*
X017195Y012860D01*
X016822Y012860D02*
X016822Y012860D01*
X016822Y012702D02*
X016822Y012702D01*
X016822Y012543D02*
X016822Y012543D01*
X016822Y012385D02*
X016822Y012385D01*
X016822Y012385D01*
X016822Y012226D02*
X016822Y012226D01*
X016822Y012068D02*
X016822Y012068D01*
X016822Y011909D02*
X016822Y011909D01*
X016449Y011909D02*
X016251Y011909D01*
X015822Y012385D02*
X014180Y010743D01*
X014180Y007456D01*
X013400Y006676D01*
X013763Y005526D02*
X014680Y006444D01*
X014680Y009274D01*
X015080Y009056D02*
X015525Y009056D01*
X015366Y008898D02*
X015080Y008898D01*
X015080Y008739D02*
X015208Y008739D01*
X015182Y008581D02*
X015080Y008581D01*
X015080Y008422D02*
X015182Y008422D01*
X015822Y008448D02*
X015118Y007743D01*
X015118Y005243D01*
X014555Y004680D01*
X013428Y004680D01*
X012582Y005526D01*
X012195Y006045D02*
X011788Y006045D01*
X011946Y005886D02*
X012036Y005886D01*
X011400Y005526D02*
X012622Y004305D01*
X014805Y004305D01*
X015822Y005322D01*
X015822Y006479D01*
X016211Y006996D02*
X016490Y006996D01*
X016573Y007079D02*
X016350Y006856D01*
X016087Y007119D01*
X015557Y007119D01*
X015517Y007080D01*
X015517Y007578D01*
X015747Y007808D01*
X016087Y007808D01*
X016350Y008071D01*
X016573Y007848D01*
X016822Y007848D01*
X016822Y008448D01*
X016822Y006479D01*
X016822Y006479D01*
X016822Y007079D01*
X016573Y007079D01*
X016822Y006996D02*
X016822Y006996D01*
X016822Y006837D02*
X016822Y006837D01*
X016822Y006679D02*
X016822Y006679D01*
X016822Y006520D02*
X016822Y006520D01*
X016822Y006362D02*
X016822Y006362D01*
X016822Y006203D02*
X016822Y006203D01*
X016822Y006045D02*
X016822Y006045D01*
X016822Y005886D02*
X016822Y005886D01*
X017077Y005886D02*
X019360Y005886D01*
X019360Y005728D02*
X016222Y005728D01*
X016222Y005886D02*
X016566Y005886D01*
X016408Y006045D02*
X016292Y006045D01*
X016222Y005569D02*
X019360Y005569D01*
X019360Y005411D02*
X016222Y005411D01*
X016222Y005252D02*
X019360Y005252D01*
X019360Y005094D02*
X016159Y005094D01*
X016106Y004935D02*
X019360Y004935D01*
X019360Y004777D02*
X017208Y004777D01*
X017366Y004618D02*
X019360Y004618D01*
X019360Y004460D02*
X017422Y004460D01*
X017422Y004301D02*
X019360Y004301D01*
X019360Y004143D02*
X017422Y004143D01*
X017340Y003984D02*
X019360Y003984D01*
X019360Y003826D02*
X017182Y003826D01*
X016822Y003826D02*
X016822Y003826D01*
X016822Y003984D02*
X016822Y003984D01*
X016822Y004143D02*
X016822Y004143D01*
X016822Y004301D02*
X016822Y004301D01*
X016822Y004460D02*
X016822Y004460D01*
X016822Y004618D02*
X016822Y004618D01*
X016822Y004777D02*
X016822Y004777D01*
X016436Y004777D02*
X016264Y004777D01*
X015822Y004314D02*
X015438Y003930D01*
X011816Y003930D01*
X010219Y005526D01*
X010765Y005886D02*
X010855Y005886D01*
X011013Y006045D02*
X010606Y006045D01*
X009400Y006676D02*
X008489Y006676D01*
X007323Y005511D01*
X006011Y005511D01*
X005203Y005094D02*
X003819Y005094D01*
X003812Y004935D02*
X005210Y004935D01*
X005108Y004777D02*
X003913Y004777D01*
X003971Y004618D02*
X005051Y004618D01*
X005051Y004460D02*
X003971Y004460D01*
X003937Y004301D02*
X005085Y004301D01*
X005154Y004143D02*
X003868Y004143D01*
X003763Y003984D02*
X005259Y003984D01*
X005128Y003826D02*
X003893Y003826D01*
X003959Y003667D02*
X005063Y003667D01*
X005051Y003509D02*
X003971Y003509D01*
X003957Y003350D02*
X005065Y003350D01*
X005130Y003192D02*
X003891Y003192D01*
X003758Y003033D02*
X005263Y003033D01*
X005149Y002875D02*
X003872Y002875D01*
X003938Y002716D02*
X005083Y002716D01*
X005051Y002558D02*
X003971Y002558D01*
X003971Y002399D02*
X005051Y002399D01*
X005110Y002241D02*
X003912Y002241D01*
X003807Y002082D02*
X005214Y002082D01*
X005198Y001924D02*
X003823Y001924D01*
X003974Y001511D02*
X004680Y000805D01*
X008317Y000805D01*
X009038Y001526D01*
X009548Y001131D02*
X009710Y001131D01*
X009868Y000973D02*
X009389Y000973D01*
X008891Y000814D02*
X018477Y000814D01*
X018754Y000973D02*
X014114Y000973D01*
X014272Y001131D02*
X018945Y001131D01*
X019072Y001290D02*
X014403Y001290D01*
X014403Y001448D02*
X019173Y001448D01*
X019250Y001607D02*
X014403Y001607D01*
X014403Y001765D02*
X015497Y001765D01*
X015338Y001924D02*
X014271Y001924D01*
X013763Y001526D02*
X012234Y003055D01*
X010805Y003055D01*
X009349Y004511D01*
X006011Y004511D01*
X005105Y005252D02*
X003916Y005252D01*
X003971Y005411D02*
X005051Y005411D01*
X005051Y005569D02*
X003971Y005569D01*
X003934Y005728D02*
X005088Y005728D01*
X005161Y005886D02*
X003861Y005886D01*
X003770Y006045D02*
X005252Y006045D01*
X005125Y006203D02*
X003896Y006203D01*
X003962Y006362D02*
X005060Y006362D01*
X005051Y006520D02*
X003971Y006520D01*
X003954Y006679D02*
X005067Y006679D01*
X005133Y006837D02*
X003888Y006837D01*
X003751Y006996D02*
X005270Y006996D01*
X005208Y007154D02*
X003876Y007154D01*
X003941Y007313D02*
X005124Y007313D01*
X005091Y007471D02*
X003971Y007471D01*
X003971Y007630D02*
X005102Y007630D01*
X005159Y007788D02*
X003909Y007788D01*
X003800Y007947D02*
X005278Y007947D01*
X005608Y008105D02*
X003881Y008105D01*
X004040Y008264D02*
X007155Y008264D01*
X007155Y008422D02*
X005368Y008422D01*
X005526Y008581D02*
X007155Y008581D01*
X007155Y008739D02*
X005611Y008739D01*
X005611Y008898D02*
X007155Y008898D01*
X007149Y008913D02*
X007149Y011493D01*
X004930Y011493D01*
X004930Y013305D01*
X005164Y013494D02*
X004092Y013494D01*
X003934Y013653D02*
X005130Y013653D01*
X005130Y013811D02*
X003892Y013811D01*
X003892Y013855D02*
X003785Y014112D01*
X003588Y014309D01*
X003331Y014415D01*
X003171Y014415D01*
X003121Y014465D01*
X003121Y014524D01*
X003234Y014638D01*
X003341Y014895D01*
X003341Y015174D01*
X003234Y015431D01*
X003037Y015628D01*
X002780Y015734D01*
X002619Y015734D01*
X002410Y015944D01*
X002410Y016419D01*
X002497Y016506D01*
X002497Y016506D01*
X002492Y016492D01*
X002492Y016214D01*
X002598Y015957D01*
X002795Y015760D01*
X003053Y015653D01*
X003331Y015653D01*
X003588Y015760D01*
X003785Y015957D01*
X003892Y016214D01*
X003892Y016492D01*
X003785Y016750D01*
X003588Y016947D01*
X003331Y017053D01*
X003053Y017053D01*
X003039Y017048D01*
X003129Y017138D01*
X007294Y017138D01*
X008456Y015975D01*
X008591Y015840D01*
X008768Y015767D01*
X009700Y015767D01*
X009700Y015728D01*
X009807Y015470D01*
X010004Y015273D01*
X010261Y015167D01*
X010540Y015167D01*
X010797Y015273D01*
X010929Y015405D01*
X010964Y015370D01*
X011033Y015317D01*
X011108Y015274D01*
X011188Y015241D01*
X011271Y015218D01*
X011357Y015207D01*
X011380Y015207D01*
X011380Y015238D02*
X011420Y015238D01*
X011420Y015396D02*
X011380Y015396D01*
X011380Y015555D02*
X011420Y015555D01*
X011420Y015713D02*
X011380Y015713D01*
X011380Y015872D02*
X011420Y015872D01*
X011420Y016030D02*
X011380Y016030D01*
X011380Y016189D02*
X011420Y016189D01*
X011420Y016267D02*
X011380Y016267D01*
X011380Y017287D01*
X011357Y017287D01*
X011271Y017276D01*
X011188Y017253D01*
X011108Y017220D01*
X011033Y017177D01*
X010964Y017124D01*
X010929Y017089D01*
X010880Y017137D01*
X010880Y017297D01*
X010968Y017297D01*
X011319Y017648D01*
X011319Y017897D01*
X011319Y017932D02*
X011482Y017932D01*
X011482Y017897D02*
X011482Y017648D01*
X011833Y017297D01*
X011920Y017297D01*
X011920Y017137D01*
X011872Y017089D01*
X011837Y017124D01*
X011768Y017177D01*
X011693Y017220D01*
X011613Y017253D01*
X011530Y017276D01*
X011444Y017287D01*
X011420Y017287D01*
X011420Y016267D01*
X011420Y016347D02*
X011380Y016347D01*
X011380Y016506D02*
X011420Y016506D01*
X011420Y016664D02*
X011380Y016664D01*
X011380Y016823D02*
X011420Y016823D01*
X011420Y016981D02*
X011380Y016981D01*
X011380Y017140D02*
X011420Y017140D01*
X011673Y017457D02*
X011128Y017457D01*
X011286Y017615D02*
X011515Y017615D01*
X011482Y017774D02*
X011319Y017774D01*
X011482Y017897D02*
X012082Y017897D01*
X012082Y017897D01*
X012082Y017932D02*
X012082Y017932D01*
X012082Y018091D02*
X012082Y018091D01*
X012082Y018249D02*
X012082Y018249D01*
X012082Y018408D02*
X012082Y018408D01*
X012419Y018408D02*
X012687Y018408D01*
X013476Y018408D02*
X015299Y018408D01*
X015251Y018249D02*
X013634Y018249D01*
X013722Y018091D02*
X015225Y018091D01*
X015622Y018883D02*
X001075Y018883D01*
X001252Y019042D02*
X015844Y019042D01*
X016360Y019042D02*
X016520Y019042D01*
X016520Y018883D02*
X016360Y018883D01*
X016360Y018725D02*
X016520Y018725D01*
X016520Y018566D02*
X016360Y018566D01*
X016360Y018408D02*
X016520Y018408D01*
X016520Y018249D02*
X016360Y018249D01*
X017036Y019042D02*
X018793Y019042D01*
X018970Y018883D02*
X017257Y018883D01*
X017436Y018682D02*
X017509Y018566D01*
X017581Y018408D02*
X019265Y018408D01*
X019308Y018249D02*
X017629Y018249D01*
X018542Y019200D02*
X001503Y019200D01*
X001370Y019136D02*
X001370Y019136D01*
X002122Y019359D02*
X017923Y019359D01*
X012091Y015238D02*
X011602Y015238D01*
X011863Y015396D02*
X011881Y015396D01*
X011199Y015238D02*
X010710Y015238D01*
X010920Y015396D02*
X010938Y015396D01*
X010091Y015238D02*
X007010Y015238D01*
X006934Y015396D02*
X009881Y015396D01*
X009772Y015555D02*
X006787Y015555D01*
X006401Y015555D02*
X006361Y015555D01*
X006361Y015694D02*
X006338Y015694D01*
X006252Y015683D01*
X006168Y015661D01*
X006088Y015628D01*
X006013Y015584D01*
X005945Y015532D01*
X005884Y015470D01*
X005831Y015402D01*
X005788Y015327D01*
X005754Y015247D01*
X005732Y015163D01*
X005721Y015078D01*
X005721Y015054D01*
X006361Y015054D01*
X006361Y015014D01*
X006401Y015014D01*
X006401Y015054D01*
X006361Y015054D01*
X006361Y015694D01*
X006226Y015760D02*
X006423Y015957D01*
X006530Y016214D01*
X006530Y016492D01*
X006423Y016750D01*
X006226Y016947D01*
X005969Y017053D01*
X005690Y017053D01*
X005433Y016947D01*
X005236Y016750D01*
X005130Y016492D01*
X005130Y016214D01*
X005236Y015957D01*
X005433Y015760D01*
X005690Y015653D01*
X005969Y015653D01*
X006226Y015760D01*
X006113Y015713D02*
X009707Y015713D01*
X009724Y016823D02*
X008966Y016823D01*
X008808Y016981D02*
X009789Y016981D01*
X009798Y017140D02*
X008649Y017140D01*
X008491Y017298D02*
X009413Y017298D01*
X009254Y017457D02*
X008332Y017457D01*
X008174Y017615D02*
X009096Y017615D01*
X009079Y017774D02*
X008015Y017774D01*
X007857Y017932D02*
X009079Y017932D01*
X009079Y018091D02*
X007605Y018091D01*
X007450Y016981D02*
X006143Y016981D01*
X006350Y016823D02*
X007609Y016823D01*
X007767Y016664D02*
X006459Y016664D01*
X006524Y016506D02*
X007926Y016506D01*
X008084Y016347D02*
X006530Y016347D01*
X006519Y016189D02*
X008243Y016189D01*
X008401Y016030D02*
X006453Y016030D01*
X006338Y015872D02*
X008560Y015872D01*
X008456Y015975D02*
X008456Y015975D01*
X006951Y015034D02*
X006381Y015034D01*
X006361Y015014D02*
X006361Y014374D01*
X006338Y014374D01*
X006252Y014386D01*
X006168Y014408D01*
X006088Y014441D01*
X006013Y014484D01*
X005945Y014537D01*
X005884Y014598D01*
X005831Y014667D01*
X005788Y014742D01*
X005754Y014822D01*
X005732Y014905D01*
X005721Y014991D01*
X005721Y015014D01*
X006361Y015014D01*
X006361Y015079D02*
X006401Y015079D01*
X006401Y014921D02*
X006361Y014921D01*
X006361Y014762D02*
X006401Y014762D01*
X006401Y014604D02*
X006361Y014604D01*
X006361Y014445D02*
X006401Y014445D01*
X006081Y014445D02*
X005407Y014445D01*
X005367Y014377D02*
X005508Y014621D01*
X005581Y014893D01*
X005581Y015175D01*
X005508Y015448D01*
X005367Y015692D01*
X005168Y015891D01*
X004924Y016032D01*
X004652Y016105D01*
X004370Y016105D01*
X004097Y016032D01*
X003853Y015891D01*
X003654Y015692D01*
X003513Y015448D01*
X003440Y015175D01*
X003440Y014893D01*
X003513Y014621D01*
X003654Y014377D01*
X003853Y014178D01*
X004097Y014037D01*
X004370Y013964D01*
X004652Y013964D01*
X004924Y014037D01*
X005168Y014178D01*
X005367Y014377D01*
X005411Y014287D02*
X005277Y014287D01*
X005252Y014128D02*
X005082Y014128D01*
X005177Y013970D02*
X004673Y013970D01*
X004348Y013970D02*
X003844Y013970D01*
X003892Y013855D02*
X003892Y013694D01*
X004418Y013168D01*
X004491Y012992D01*
X004491Y010691D01*
X006006Y010691D01*
X006246Y010931D01*
X006776Y010931D01*
X007151Y010556D01*
X007151Y010026D01*
X006776Y009651D01*
X006246Y009651D01*
X006006Y009891D01*
X004491Y009891D01*
X004491Y009338D01*
X004539Y009290D01*
X004762Y009513D01*
X005011Y009513D01*
X005011Y008913D01*
X007149Y008913D01*
X007155Y009056D02*
X005611Y009056D01*
X005558Y009215D02*
X007155Y009215D01*
X007155Y009373D02*
X005399Y009373D01*
X005011Y009373D02*
X005011Y009373D01*
X005011Y009215D02*
X005011Y009215D01*
X005011Y009056D02*
X005011Y009056D01*
X005011Y008913D02*
X005011Y008913D01*
X005011Y008898D02*
X005011Y008898D01*
X005011Y008739D02*
X005011Y008739D01*
X005011Y008581D02*
X005011Y008581D01*
X005011Y008422D02*
X005011Y008422D01*
X004653Y008422D02*
X004425Y008422D01*
X003407Y009215D02*
X002000Y009215D01*
X001955Y009056D02*
X003371Y009056D01*
X003316Y008898D02*
X001955Y008898D01*
X001955Y008739D02*
X003158Y008739D01*
X002999Y008581D02*
X001955Y008581D01*
X001955Y008422D02*
X002841Y008422D01*
X002682Y008264D02*
X001955Y008264D01*
X001955Y008105D02*
X002453Y008105D01*
X002221Y007947D02*
X001955Y007947D01*
X001955Y007788D02*
X002113Y007788D01*
X002051Y007630D02*
X001955Y007630D01*
X001955Y007471D02*
X002051Y007471D01*
X002080Y007313D02*
X001955Y007313D01*
X001955Y007154D02*
X002146Y007154D01*
X002270Y006996D02*
X001955Y006996D01*
X001955Y006837D02*
X002133Y006837D01*
X002067Y006679D02*
X001955Y006679D01*
X001955Y006520D02*
X002051Y006520D01*
X002060Y006362D02*
X001955Y006362D01*
X001955Y006203D02*
X002125Y006203D01*
X002252Y006045D02*
X001955Y006045D01*
X001955Y005886D02*
X002161Y005886D01*
X002088Y005728D02*
X001955Y005728D01*
X001955Y005569D02*
X002051Y005569D01*
X002051Y005411D02*
X001955Y005411D01*
X002049Y005252D02*
X002105Y005252D01*
X001555Y005180D02*
X001555Y009336D01*
X002511Y010291D01*
X002908Y010800D02*
X003531Y010800D01*
X003531Y010958D02*
X000685Y010958D01*
X000685Y010800D02*
X002114Y010800D01*
X001955Y010641D02*
X000685Y010641D01*
X000685Y010483D02*
X001871Y010483D01*
X001871Y010324D02*
X000685Y010324D01*
X000685Y010166D02*
X001819Y010166D01*
X001661Y010007D02*
X000685Y010007D01*
X000685Y009849D02*
X001502Y009849D01*
X001344Y009690D02*
X000685Y009690D01*
X000685Y009532D02*
X001203Y009532D01*
X001155Y009373D02*
X000685Y009373D01*
X000685Y009215D02*
X001155Y009215D01*
X001155Y009056D02*
X000685Y009056D01*
X000685Y008898D02*
X001155Y008898D01*
X001155Y008739D02*
X000685Y008739D01*
X000685Y008581D02*
X001155Y008581D01*
X001155Y008422D02*
X000685Y008422D01*
X000685Y008264D02*
X001155Y008264D01*
X001155Y008105D02*
X000685Y008105D01*
X000685Y007947D02*
X001155Y007947D01*
X001155Y007788D02*
X000685Y007788D01*
X000685Y007630D02*
X001155Y007630D01*
X001155Y007471D02*
X000685Y007471D01*
X000685Y007313D02*
X001155Y007313D01*
X001155Y007154D02*
X000685Y007154D01*
X000685Y006996D02*
X001155Y006996D01*
X001155Y006837D02*
X000685Y006837D01*
X000685Y006679D02*
X001155Y006679D01*
X001155Y006520D02*
X000685Y006520D01*
X000685Y006362D02*
X001155Y006362D01*
X001155Y006203D02*
X000685Y006203D01*
X000685Y006045D02*
X001155Y006045D01*
X001155Y005886D02*
X000685Y005886D01*
X000685Y005728D02*
X001155Y005728D01*
X001155Y005569D02*
X000685Y005569D01*
X000685Y005411D02*
X001155Y005411D01*
X001155Y005252D02*
X000685Y005252D01*
X000685Y005094D02*
X001158Y005094D01*
X001234Y004935D02*
X000685Y004935D01*
X000685Y004777D02*
X001393Y004777D01*
X001551Y004618D02*
X000685Y004618D01*
X000685Y004460D02*
X001710Y004460D01*
X001868Y004301D02*
X000685Y004301D01*
X000685Y004143D02*
X002068Y004143D01*
X002259Y003984D02*
X000685Y003984D01*
X000685Y003826D02*
X002128Y003826D01*
X002063Y003667D02*
X000685Y003667D01*
X000685Y003509D02*
X002051Y003509D01*
X002065Y003350D02*
X000685Y003350D01*
X000685Y003192D02*
X002130Y003192D01*
X002263Y003033D02*
X000685Y003033D01*
X000685Y002875D02*
X002149Y002875D01*
X002083Y002716D02*
X000685Y002716D01*
X000685Y002558D02*
X002051Y002558D01*
X002051Y002399D02*
X000685Y002399D01*
X000685Y002241D02*
X002110Y002241D01*
X002214Y002082D02*
X000689Y002082D01*
X000685Y002149D02*
X000685Y017897D01*
X000694Y018060D01*
X000767Y018380D01*
X000737Y018249D02*
X009167Y018249D01*
X010969Y017298D02*
X011832Y017298D01*
X011817Y017140D02*
X011920Y017140D01*
X011482Y018091D02*
X011319Y018091D01*
X011215Y018249D02*
X011586Y018249D01*
X011744Y018408D02*
X011057Y018408D01*
X010984Y017140D02*
X010880Y017140D01*
X006775Y013336D02*
X019360Y013336D01*
X019360Y013494D02*
X006617Y013494D01*
X006530Y013653D02*
X019360Y013653D01*
X019360Y013811D02*
X006530Y013811D01*
X005879Y014604D02*
X005498Y014604D01*
X005546Y014762D02*
X005779Y014762D01*
X005730Y014921D02*
X005581Y014921D01*
X005581Y015079D02*
X005721Y015079D01*
X005752Y015238D02*
X005565Y015238D01*
X005522Y015396D02*
X005828Y015396D01*
X005975Y015555D02*
X005447Y015555D01*
X005546Y015713D02*
X005346Y015713D01*
X005321Y015872D02*
X005188Y015872D01*
X005206Y016030D02*
X004927Y016030D01*
X005140Y016189D02*
X003881Y016189D01*
X003892Y016347D02*
X005130Y016347D01*
X005135Y016506D02*
X003886Y016506D01*
X003821Y016664D02*
X005201Y016664D01*
X005309Y016823D02*
X003712Y016823D01*
X003505Y016981D02*
X005516Y016981D01*
X004094Y016030D02*
X003816Y016030D01*
X003834Y015872D02*
X003700Y015872D01*
X003675Y015713D02*
X003475Y015713D01*
X003575Y015555D02*
X003110Y015555D01*
X003248Y015396D02*
X003499Y015396D01*
X003457Y015238D02*
X003314Y015238D01*
X003341Y015079D02*
X003440Y015079D01*
X003440Y014921D02*
X003341Y014921D01*
X003286Y014762D02*
X003475Y014762D01*
X003523Y014604D02*
X003200Y014604D01*
X003141Y014445D02*
X003615Y014445D01*
X003611Y014287D02*
X003745Y014287D01*
X003769Y014128D02*
X003939Y014128D01*
X004251Y013336D02*
X005229Y013336D01*
X005378Y013177D02*
X004409Y013177D01*
X004480Y013019D02*
X005683Y013019D01*
X006119Y012860D02*
X004491Y012860D01*
X004491Y012702D02*
X006278Y012702D01*
X006436Y012543D02*
X004491Y012543D01*
X004491Y012385D02*
X006595Y012385D01*
X006753Y012226D02*
X004491Y012226D01*
X004491Y012068D02*
X006912Y012068D01*
X007070Y011909D02*
X004491Y011909D01*
X004491Y011751D02*
X007155Y011751D01*
X007155Y011592D02*
X004491Y011592D01*
X004491Y011434D02*
X007155Y011434D01*
X007155Y011275D02*
X004491Y011275D01*
X004491Y011117D02*
X007155Y011117D01*
X007155Y010958D02*
X004491Y010958D01*
X004491Y010800D02*
X006114Y010800D01*
X006511Y010291D02*
X004011Y010291D01*
X004011Y010430D01*
X003531Y010483D02*
X003151Y010483D01*
X003151Y010324D02*
X003531Y010324D01*
X003531Y010166D02*
X003151Y010166D01*
X003132Y010007D02*
X003531Y010007D01*
X003531Y009849D02*
X002973Y009849D01*
X002815Y009690D02*
X003531Y009690D01*
X003531Y009532D02*
X002317Y009532D01*
X002158Y009373D02*
X003531Y009373D01*
X004491Y009373D02*
X004622Y009373D01*
X004491Y009532D02*
X007155Y009532D01*
X007155Y009690D02*
X006815Y009690D01*
X006973Y009849D02*
X007155Y009849D01*
X007155Y010007D02*
X007132Y010007D01*
X007151Y010166D02*
X007155Y010166D01*
X007151Y010324D02*
X007155Y010324D01*
X007151Y010483D02*
X007155Y010483D01*
X007155Y010641D02*
X007066Y010641D01*
X007155Y010800D02*
X006908Y010800D01*
X007955Y010800D02*
X010043Y010800D01*
X010055Y010800D02*
X013180Y010800D01*
X013180Y010958D02*
X010055Y010958D01*
X010106Y010958D02*
X007955Y010958D01*
X007955Y011117D02*
X010195Y011117D01*
X010055Y011117D02*
X013180Y011117D01*
X013180Y011275D02*
X010055Y011275D01*
X010055Y011434D02*
X013180Y011434D01*
X013180Y011592D02*
X010055Y011592D01*
X010055Y011751D02*
X013180Y011751D01*
X013180Y011909D02*
X010055Y011909D01*
X010055Y012068D02*
X013180Y012068D01*
X012489Y011275D02*
X014146Y011275D01*
X013988Y011117D02*
X012606Y011117D01*
X012695Y010958D02*
X013836Y010958D01*
X013780Y010800D02*
X012758Y010800D01*
X012800Y010641D02*
X013780Y010641D01*
X013780Y010483D02*
X012824Y010483D01*
X013180Y010483D02*
X010055Y010483D01*
X009977Y010483D02*
X007955Y010483D01*
X007955Y010641D02*
X010001Y010641D01*
X010055Y010641D02*
X013180Y010641D01*
X013180Y010324D02*
X010055Y010324D01*
X010055Y010166D02*
X013180Y010166D01*
X013180Y010007D02*
X010055Y010007D01*
X010010Y010007D02*
X007955Y010007D01*
X007955Y009849D02*
X010059Y009849D01*
X010055Y009849D02*
X013180Y009849D01*
X014580Y009849D02*
X014688Y009849D01*
X014580Y010007D02*
X014847Y010007D01*
X015005Y010166D02*
X014580Y010166D01*
X014580Y010324D02*
X015164Y010324D01*
X015182Y010483D02*
X014580Y010483D01*
X014644Y010641D02*
X015182Y010641D01*
X015661Y009690D02*
X019360Y009690D01*
X019360Y009532D02*
X015503Y009532D01*
X015344Y009373D02*
X019360Y009373D01*
X019360Y009215D02*
X015186Y009215D01*
X016119Y009056D02*
X019360Y009056D01*
X019360Y008898D02*
X017220Y008898D01*
X017379Y008739D02*
X019360Y008739D01*
X019360Y008581D02*
X017422Y008581D01*
X017422Y008422D02*
X019360Y008422D01*
X019360Y008264D02*
X017422Y008264D01*
X017328Y008105D02*
X019360Y008105D01*
X019360Y007947D02*
X017169Y007947D01*
X016822Y007947D02*
X016822Y007947D01*
X016822Y008105D02*
X016822Y008105D01*
X016822Y008264D02*
X016822Y008264D01*
X016822Y008422D02*
X016822Y008422D01*
X016822Y008448D02*
X016822Y008448D01*
X016822Y008581D02*
X016822Y008581D01*
X016822Y008739D02*
X016822Y008739D01*
X016822Y008898D02*
X016822Y008898D01*
X016423Y008898D02*
X016277Y008898D01*
X016159Y009849D02*
X016541Y009849D01*
X016382Y010007D02*
X016318Y010007D01*
X016822Y010007D02*
X016822Y010007D01*
X016822Y009849D02*
X016822Y009849D01*
X017103Y009849D02*
X019360Y009849D01*
X019360Y010007D02*
X017261Y010007D01*
X017420Y010166D02*
X019360Y010166D01*
X019360Y010324D02*
X017422Y010324D01*
X017422Y010483D02*
X019360Y010483D01*
X019360Y010641D02*
X017422Y010641D01*
X017287Y010800D02*
X019360Y010800D01*
X019360Y010958D02*
X017128Y010958D01*
X016822Y010958D02*
X016822Y010958D01*
X016822Y010800D02*
X016822Y010800D01*
X016822Y010641D02*
X016822Y010641D01*
X016822Y010483D02*
X016822Y010483D01*
X016822Y010324D02*
X016822Y010324D01*
X016822Y010166D02*
X016822Y010166D01*
X016357Y010800D02*
X016344Y010800D01*
X016185Y010958D02*
X016515Y010958D01*
X016449Y012860D02*
X016252Y012860D01*
X014622Y011751D02*
X011674Y011751D01*
X012105Y011592D02*
X014463Y011592D01*
X014305Y011434D02*
X012331Y011434D01*
X011320Y010324D02*
X007955Y010324D01*
X007955Y010166D02*
X009981Y010166D01*
X010312Y011275D02*
X007955Y011275D01*
X007955Y011434D02*
X010470Y011434D01*
X010696Y011592D02*
X007955Y011592D01*
X006207Y009690D02*
X004491Y009690D01*
X004491Y009849D02*
X006048Y009849D01*
X007955Y008422D02*
X009060Y008422D01*
X008902Y008264D02*
X007955Y008264D01*
X007955Y008105D02*
X008102Y008105D01*
X008420Y007857D02*
X009400Y007857D01*
X008420Y007857D02*
X007555Y006993D01*
X007073Y006511D02*
X006011Y006511D01*
X003011Y004511D02*
X002224Y004511D01*
X001555Y005180D01*
X000685Y002149D02*
X000694Y001985D01*
X000767Y001665D01*
X000909Y001370D01*
X000872Y001448D02*
X002051Y001448D01*
X002051Y001607D02*
X000795Y001607D01*
X000744Y001765D02*
X002103Y001765D01*
X002198Y001924D02*
X000708Y001924D01*
X000973Y001290D02*
X002090Y001290D01*
X002165Y001131D02*
X001100Y001131D01*
X001291Y000973D02*
X002324Y000973D01*
X001568Y000814D02*
X004105Y000814D01*
X003947Y000973D02*
X003698Y000973D01*
X003974Y001511D02*
X003011Y001511D01*
X004286Y001765D02*
X005103Y001765D01*
X005051Y001607D02*
X004444Y001607D01*
X004603Y001448D02*
X005051Y001448D01*
X005090Y001290D02*
X004761Y001290D01*
X006011Y001511D02*
X008011Y001511D01*
X008618Y002118D01*
X009628Y002118D01*
X010219Y001526D01*
X010729Y001131D02*
X010891Y001131D01*
X011049Y000973D02*
X010571Y000973D01*
X011400Y001526D02*
X010747Y002180D01*
X010243Y002180D01*
X009912Y002511D01*
X006011Y002511D01*
X006011Y003511D02*
X009599Y003511D01*
X010493Y002618D01*
X011491Y002618D01*
X012582Y001526D01*
X013091Y001131D02*
X013253Y001131D01*
X013412Y000973D02*
X012933Y000973D01*
X012230Y000973D02*
X011752Y000973D01*
X011910Y001131D02*
X012072Y001131D01*
X013926Y002875D02*
X015446Y002875D01*
X015741Y003667D02*
X019360Y003667D01*
X019360Y003509D02*
X013292Y003509D01*
X013451Y003350D02*
X019360Y003350D01*
X019360Y003192D02*
X013609Y003192D01*
X013768Y003033D02*
X019360Y003033D01*
X016554Y001765D02*
X016146Y001765D01*
X016305Y001924D02*
X016395Y001924D01*
X016462Y003826D02*
X016238Y003826D01*
X017236Y006045D02*
X019360Y006045D01*
X019360Y006203D02*
X017394Y006203D01*
X017422Y006362D02*
X019360Y006362D01*
X019360Y006520D02*
X017422Y006520D01*
X017422Y006679D02*
X019360Y006679D01*
X019360Y006837D02*
X017312Y006837D01*
X017154Y006996D02*
X019360Y006996D01*
X019360Y007154D02*
X015517Y007154D01*
X015517Y007313D02*
X019360Y007313D01*
X019360Y007471D02*
X015517Y007471D01*
X015569Y007630D02*
X019360Y007630D01*
X019360Y007788D02*
X015728Y007788D01*
X016226Y007947D02*
X016474Y007947D01*
X011480Y009056D02*
X011320Y009056D01*
X011320Y009215D02*
X011480Y009215D01*
X011480Y009373D02*
X011320Y009373D01*
X011320Y009532D02*
X011480Y009532D01*
X011480Y009690D02*
X011320Y009690D01*
X011320Y009849D02*
X011480Y009849D01*
X011480Y010007D02*
X011320Y010007D01*
X011320Y010166D02*
X011480Y010166D01*
X006401Y015238D02*
X006361Y015238D01*
X006361Y015396D02*
X006401Y015396D01*
X003527Y012702D02*
X000685Y012702D01*
X000685Y012860D02*
X003368Y012860D01*
X003531Y012543D02*
X000685Y012543D01*
X000685Y012385D02*
X003531Y012385D01*
X003531Y012226D02*
X000685Y012226D01*
X000685Y012068D02*
X003531Y012068D01*
X003531Y011909D02*
X000685Y011909D01*
X000685Y011751D02*
X003531Y011751D01*
X003531Y011592D02*
X000685Y011592D01*
X000685Y011434D02*
X003531Y011434D01*
X003531Y011275D02*
X000685Y011275D01*
X000685Y011117D02*
X003531Y011117D01*
X003531Y010641D02*
X003066Y010641D01*
X003045Y013019D02*
X000685Y013019D01*
X000685Y013177D02*
X002740Y013177D01*
X002592Y013336D02*
X000685Y013336D01*
X000685Y013494D02*
X002526Y013494D01*
X002492Y013653D02*
X000685Y013653D01*
X000685Y013811D02*
X002417Y013811D01*
X002259Y013970D02*
X000685Y013970D01*
X000685Y014128D02*
X002178Y014128D01*
X002161Y014287D02*
X000685Y014287D01*
X000685Y014445D02*
X002161Y014445D01*
X002081Y014604D02*
X000685Y014604D01*
X000685Y014762D02*
X001996Y014762D01*
X001941Y014921D02*
X000685Y014921D01*
X000685Y015079D02*
X001917Y015079D01*
X001759Y015238D02*
X000685Y015238D01*
X000685Y015396D02*
X001600Y015396D01*
X001489Y015555D02*
X000685Y015555D01*
X000685Y015713D02*
X001450Y015713D01*
X001450Y015872D02*
X000685Y015872D01*
X000685Y016030D02*
X001450Y016030D01*
X001450Y016189D02*
X000685Y016189D01*
X000685Y016347D02*
X001450Y016347D01*
X001450Y016506D02*
X000685Y016506D01*
X000685Y016664D02*
X001450Y016664D01*
X001495Y016823D02*
X000685Y016823D01*
X000685Y016981D02*
X001615Y016981D01*
X001773Y017140D02*
X000685Y017140D01*
X000685Y017298D02*
X001932Y017298D01*
X002090Y017457D02*
X000685Y017457D01*
X000685Y017615D02*
X002249Y017615D01*
X002407Y017774D02*
X000685Y017774D01*
X000687Y017932D02*
X002566Y017932D01*
X002818Y018091D02*
X000701Y018091D01*
X002410Y016347D02*
X002492Y016347D01*
X002502Y016189D02*
X002410Y016189D01*
X002410Y016030D02*
X002568Y016030D01*
X002482Y015872D02*
X002684Y015872D01*
X002831Y015713D02*
X002908Y015713D01*
M02*
